stm32f303xx_rcc.c:14:13:RCC_StartHSI	4	static
stm32f303xx_rcc.c:18:13:RCC_StopHSI	4	static
stm32f303xx_rcc.c:22:13:RCC_StartHSE	4	static
stm32f303xx_rcc.c:26:13:RCC_StopHSE	4	static
stm32f303xx_rcc.c:30:13:RCC_StartHSE_BYPASS	8	static
stm32f303xx_rcc.c:35:13:RCC_StopHSE_BYPASS	8	static
stm32f303xx_rcc.c:40:13:RCC_StartLSI	4	static
stm32f303xx_rcc.c:44:13:RCC_StopLSI	4	static
stm32f303xx_rcc.c:48:13:RCC_StartLSE	4	static
stm32f303xx_rcc.c:52:13:RCC_StopLSE	4	static
stm32f303xx_rcc.c:56:13:RCC_StartLSE_BYPASS	8	static
stm32f303xx_rcc.c:61:13:RCC_StopLSE_BYPASS	8	static
stm32f303xx_rcc.c:66:13:RCC_StartPLL	4	static
stm32f303xx_rcc.c:70:13:RCC_StopPLL	4	static
stm32f303xx_rcc.c:74:13:RCC_WaitUntilHSI_Ready	4	static
stm32f303xx_rcc.c:82:13:RCC_WaitUntilHSE_Ready	4	static
stm32f303xx_rcc.c:89:13:RCC_WaitUntilPLL_Ready	4	static
stm32f303xx_rcc.c:97:13:RCC_WaitUntilLSI_Ready	4	static
stm32f303xx_rcc.c:105:13:RCC_WaitUntilLSE_Ready	4	static
stm32f303xx_rcc.c:117:6:RCC_HSI_Init	8	static
stm32f303xx_rcc.c:123:6:RCC_HSE_Init	8	static
stm32f303xx_rcc.c:128:6:RCC_HSE_BYPASS_Init	8	static
stm32f303xx_rcc.c:133:6:RCC_PLL_Init	16	static
stm32f303xx_rcc.c:140:6:RCC_LSE_Init	8	static
stm32f303xx_rcc.c:145:6:RCC_LSE_BYPASS_Init	8	static
stm32f303xx_rcc.c:150:6:RCC_LSI_Init	8	static
stm32f303xx_rcc.c:166:6:RCC_ConfigurePLL	16	static
stm32f303xx_rcc.c:192:13:RCC_ConfigureHSI_Calibration	16	static
stm32f303xx_rcc.c:202:13:RCC_ConfigureHSI_TrimmingValue	16	static
stm32f303xx_rcc.c:215:6:RCC_SetSystemClockSwitch	16	static
stm32f303xx_rcc.c:224:6:RCC_EnableCSS	16	static
stm32f303xx_rcc.c:236:6:RCC_ConfigureAPB1_Prescaler	16	static
stm32f303xx_rcc.c:248:6:RCC_ConfigureAPB2_Prescaler	16	static
stm32f303xx_rcc.c:259:6:RCC_ConfigureHCLK_Prescaler	16	static
stm32f303xx_rcc.c:271:6:RCC_SelectRTC_ClockSource	16	static
stm32f303xx_rcc.c:286:9:RCC_GetSystemClockSwitch	16	static
stm32f303xx_rcc.c:292:10:RCC_GetHCLKPrescaler	16	static
stm32f303xx_rcc.c:316:9:RCC_GetAPB1Prescaler	16	static
stm32f303xx_rcc.c:332:9:RCC_GetAPB2Prescaler	16	static
stm32f303xx_rcc.c:348:10:RCC_GetSYSCLKValue	16	static
stm32f303xx_rcc.c:364:10:RCC_GetHCLKValue	24	static
stm32f303xx_rcc.c:374:10:RCC_GetPCLK1Value	24	static
stm32f303xx_rcc.c:385:10:RCC_GetPCLK2Value	24	static
stm32f303xx_rcc.c:395:10:RCC_GetPLLOutput	24	static
stm32f303xx_rcc.c:406:10:RCC_GetPLLSource	16	static
stm32f303xx_rcc.c:424:9:RCC_GetPLLMultiplier	16	static
